{
  "directed": false,
  "multigraph": false,
  "graph": {},
  "metadata": {
    "edgeType": "statut",
    "attributes" : ["lastname"]
  },
  "nodes": [
    {
      "lastname": "INCHAURREGUI",
      "firstname": "Jos\u00E9",
      "name": "Jos\u00E9 INCHAURREGUI",
      "id": 10274
    },
    {
      "lastname": "GOICOLEA",
      "firstname": "Juan Angel",
      "name": "Juan Angel GOICOLEA",
      "id": 10279
    },
    {
      "lastname": "GOICOLEA",
      "firstname": "Francisco",
      "name": "Francisco GOICOLEA",
      "id": 10280
    },
    {
      "lastname": "LARRAONDO",
      "firstname": "Mar\u00EDa Josefa",
      "name": "Mar\u00EDa Josefa LARRAONDO",
      "id": 10281
    },
    {
      "lastname": "SEGUROLA",
      "firstname": "Benita",
      "name": "Benita SEGUROLA",
      "id": 10282
    },
    {
      "lastname": "BRACHO",
      "firstname": "Rosa",
      "name": "Rosa BRACHO",
      "id": 10283
    },
    {
      "lastname": "LISTA",
      "firstname": "Andr\u00E9s",
      "name": "Andr\u00E9s LISTA",
      "id": 10284
    },
    {
      "lastname": "LISTA",
      "firstname": "Francisco",
      "name": "Francisco LISTA",
      "id": 10285
    },
    {
      "lastname": "SUAREZ",
      "firstname": "Manuela",
      "name": "Manuela SUAREZ",
      "id": 10286
    },
    {
      "lastname": "VIAMONTE",
      "firstname": "Ramona",
      "name": "Ramona VIAMONTE",
      "id": 10287
    },
    {
      "lastname": "VIAMONTE",
      "firstname": "Jaime",
      "name": "Jaime VIAMONTE",
      "id": 10288
    },
    {
      "lastname": "GONZALEZ",
      "firstname": "B\u00E1rbara",
      "name": "B\u00E1rbara GONZALEZ",
      "id": 10289
    },
    {
      "lastname": "TAGLE BRACHO",
      "firstname": "Rosa",
      "name": "Rosa TAGLE BRACHO",
      "id": 10290
    },
    {
      "lastname": "HERRERO",
      "firstname": "Francisco Antonio",
      "name": "Francisco Antonio HERRERO",
      "id": 10296
    },
    {
      "lastname": "HERRERO",
      "firstname": "Fernando",
      "name": "Fernando HERRERO",
      "id": 10297
    },
    {
      "lastname": "GARCIA SALCEDO",
      "firstname": "Mar\u00EDa",
      "name": "Mar\u00EDa GARCIA SALCEDO",
      "id": 10298
    },
    {
      "lastname": "ARAMBURU",
      "firstname": "Mar\u00EDa Mercedes",
      "name": "Mar\u00EDa Mercedes ARAMBURU",
      "id": 10299
    },
    {
      "lastname": "TORRE TAGLE BRACHO TORRE TAGLE BRACHO",
      "firstname": "Catalina",
      "name": "Catalina TORRE TAGLE BRACHO TORRE TAGLE BRACHO",
      "id": 10300
    },
    {
      "lastname": "TORRE TAGLE BRACHO",
      "firstname": "Rosa",
      "name": "Rosa TORRE TAGLE BRACHO",
      "id": 10301
    },
    {
      "lastname": "ORTIZ BASUALDO",
      "firstname": "Manuel",
      "name": "Manuel ORTIZ BASUALDO",
      "id": 10302
    },
    {
      "lastname": "ORTIZ",
      "firstname": "Juan Antonio",
      "name": "Juan Antonio ORTIZ",
      "id": 10303
    },
    {
      "lastname": "BASUALDO",
      "firstname": "Josefa",
      "name": "Josefa BASUALDO",
      "id": 10304
    },
    {
      "lastname": "SEGUROLA",
      "firstname": "Mar\u00EDa Cruz",
      "name": "Mar\u00EDa Cruz SEGUROLA",
      "id": 10305
    },
    {
      "lastname": "LEZICA TORREZURI ALQUIZA",
      "firstname": "Mar\u00EDa Bernarda",
      "name": "Mar\u00EDa Bernarda LEZICA TORREZURI ALQUIZA",
      "id": 10306
    },
    {
      "lastname": "LEZICA",
      "firstname": "Josefa Gaona",
      "name": "Josefa Gaona LEZICA",
      "id": 10307
    },
    {
      "lastname": "IGLESIAS",
      "firstname": "Benito",
      "name": "Benito IGLESIAS",
      "id": 10311
    },
    {
      "lastname": "IGLESIAS",
      "firstname": "Antonio",
      "name": "Antonio IGLESIAS",
      "id": 10312
    },
    {
      "lastname": "CALDERON",
      "firstname": "Agustina",
      "name": "Agustina CALDERON",
      "id": 10313
    },
    {
      "lastname": "ARAMBURU",
      "firstname": "Mar\u00EDa Josefa",
      "name": "Mar\u00EDa Josefa ARAMBURU",
      "id": 10314
    },
    {
      "lastname": "ELORRIAGA",
      "firstname": "Juan Bautista",
      "name": "Juan Bautista ELORRIAGA",
      "id": 10322
    },
    {
      "lastname": "URIZAR",
      "firstname": "Josefa",
      "name": "Josefa URIZAR",
      "id": 10323
    },
    {
      "lastname": "SEGUROLA",
      "firstname": "Leocadia",
      "name": "Leocadia SEGUROLA",
      "id": 10324
    },
    {
      "lastname": "INCHAURREGUI",
      "firstname": "Jos\u00E9 Santos",
      "name": "Jos\u00E9 Santos INCHAURREGUI",
      "id": 10325
    },
    {
      "lastname": "ZULUETA",
      "firstname": "Jos\u00E9 Mart\u00EDn",
      "name": "Jos\u00E9 Mart\u00EDn ZULUETA",
      "id": 10326
    },
    {
      "lastname": "APELLANIZ",
      "firstname": "Gabriela",
      "name": "Gabriela APELLANIZ",
      "id": 10327
    },
    {
      "lastname": "ARAMBURU",
      "firstname": "Mar\u00EDa Eugenia",
      "name": "Mar\u00EDa Eugenia ARAMBURU",
      "id": 10328
    },
    {
      "lastname": "TORRE",
      "firstname": "Mar\u00EDa Catalina",
      "name": "Mar\u00EDa Catalina TORRE",
      "id": 10329
    },
    {
      "lastname": "ILLA",
      "firstname": "Jaime",
      "name": "Jaime ILLA",
      "id": 10341
    },
    {
      "lastname": "ILLA",
      "firstname": "Jos\u00E9",
      "name": "Jos\u00E9 ILLA",
      "id": 10342
    },
    {
      "lastname": "BUC",
      "firstname": "Mar\u00EDa",
      "name": "Mar\u00EDa BUC",
      "id": 10343
    },
    {
      "lastname": "VIAMONT",
      "firstname": "Valentina",
      "name": "Valentina VIAMONT",
      "id": 10344
    },
    {
      "lastname": "VIAMONT",
      "firstname": "Jaime",
      "name": "Jaime VIAMONT",
      "id": 10345
    },
    {
      "lastname": "IRIGOYEN",
      "firstname": "Jos\u00E9 Antonio",
      "name": "Jos\u00E9 Antonio IRIGOYEN",
      "id": 10346
    },
    {
      "lastname": "IRIGOYEN",
      "firstname": "Jos\u00E9 Manuel",
      "name": "Jos\u00E9 Manuel IRIGOYEN",
      "id": 10347
    },
    {
      "lastname": "IBARROLA",
      "firstname": "Mar\u00EDa Br\u00EDgida",
      "name": "Mar\u00EDa Br\u00EDgida IBARROLA",
      "id": 10348
    },
    {
      "lastname": "SEGUROLA",
      "firstname": "Eusebia",
      "name": "Eusebia SEGUROLA",
      "id": 10349
    },
    {
      "lastname": "LEZICA.",
      "firstname": "Mar\u00EDa Bernarda",
      "name": "Mar\u00EDa Bernarda LEZICA.",
      "id": 10350
    },
    {
      "lastname": "ECHEVERRIA",
      "firstname": "Jos\u00E9 Gregorio",
      "name": "Jos\u00E9 Gregorio ECHEVERRIA",
      "id": 10351
    },
    {
      "lastname": "GOYCOA",
      "firstname": "Jos\u00E9 Vicente",
      "name": "Jos\u00E9 Vicente GOYCOA",
      "id": 10352
    },
    {
      "lastname": "ANORGA",
      "firstname": "Mart\u00EDn Felipe",
      "name": "Mart\u00EDn Felipe ANORGA",
      "id": 10353
    },
    {
      "lastname": "ROMERO",
      "firstname": "Ignacio",
      "name": "Ignacio ROMERO",
      "id": 10372
    },
    {
      "lastname": "ROMERO",
      "firstname": "Cayetano",
      "name": "Cayetano ROMERO",
      "id": 10373
    },
    {
      "lastname": "UBINA,",
      "firstname": "Juana",
      "name": "Juana UBINA,",
      "id": 10374
    },
    {
      "lastname": "ALVA",
      "firstname": "Rosa Nicolasa",
      "name": "Rosa Nicolasa ALVA",
      "id": 10375
    },
    {
      "lastname": "ALVA",
      "firstname": "Francisco",
      "name": "Francisco ALVA",
      "id": 10376
    },
    {
      "lastname": "LEON GARCIA",
      "firstname": "Luisa",
      "name": "Luisa LEON GARCIA",
      "id": 10377
    },
    {
      "lastname": "LETAMENDI",
      "firstname": "Francisco Antonio",
      "name": "Francisco Antonio LETAMENDI",
      "id": 10382
    },
    {
      "lastname": "LETAMENDI",
      "firstname": "Manuel",
      "name": "Manuel LETAMENDI",
      "id": 10383
    },
    {
      "lastname": "ORUETA",
      "firstname": "Mar\u00EDa Antonia",
      "name": "Mar\u00EDa Antonia ORUETA",
      "id": 10384
    },
    {
      "lastname": "SEGUROLA",
      "firstname": "Mar\u00EDa Dolores",
      "name": "Mar\u00EDa Dolores SEGUROLA",
      "id": 10385
    },
    {
      "lastname": "CRUZ SEGUROLA",
      "firstname": "Mar\u00EDa",
      "name": "Mar\u00EDa CRUZ SEGUROLA",
      "id": 10386
    },
    {
      "lastname": "LEZICA",
      "firstname": "Pedro",
      "name": "Pedro LEZICA",
      "id": 10387
    },
    {
      "lastname": "GARCIA",
      "firstname": "Petrona",
      "name": "Petrona GARCIA",
      "id": 10388
    },
    {
      "lastname": "GARCIA",
      "firstname": "Lorenzo",
      "name": "Lorenzo GARCIA",
      "id": 10389
    },
    {
      "lastname": "ALMANDOZ",
      "firstname": "Ana",
      "name": "Ana ALMANDOZ",
      "id": 10390
    },
    {
      "lastname": "de SEGUROLA",
      "firstname": "Romualdo Jos\u00E9",
      "name": "Romualdo Jos\u00E9 de SEGUROLA",
      "id": 1716
    },
    {
      "lastname": "GREGORIO de la HERAS",
      "firstname": "Mar\u00EDa Romualda",
      "name": "Mar\u00EDa Romualda GREGORIO de la HERAS",
      "id": 1717
    },
    {
      "lastname": "SEGUROLA",
      "firstname": "Francisco",
      "name": "Francisco SEGUROLA",
      "id": 1718
    },
    {
      "lastname": "LEZICA",
      "firstname": "Bernarda",
      "name": "Bernarda LEZICA",
      "id": 1719
    },
    {
      "lastname": "GREGORIO de la HERAS",
      "firstname": "Bernardo",
      "name": "Bernardo GREGORIO de la HERAS",
      "id": 1720
    },
    {
      "lastname": "de la GACHA",
      "firstname": "Rosal\u00EDa",
      "name": "Rosal\u00EDa de la GACHA",
      "id": 1331
    },
    {
      "lastname": "LEZICA",
      "firstname": "Juan Antonio",
      "name": "Juan Antonio LEZICA",
      "id": 1365
    },
    {
      "lastname": "LEZICA",
      "firstname": "Mar\u00EDa Elena",
      "name": "Mar\u00EDa Elena LEZICA",
      "id": 10190
    },
    {
      "lastname": "LEZICA",
      "firstname": "Mar\u00EDa Bernarda",
      "name": "Mar\u00EDa Bernarda LEZICA",
      "id": 10205
    },
    {
      "lastname": "TORRE",
      "firstname": "Rosa",
      "name": "Rosa TORRE",
      "id": 10224
    },
    {
      "lastname": "ARAMBURU",
      "firstname": "Adri\u00E1n",
      "name": "Adri\u00E1n ARAMBURU",
      "id": 10233
    },
    {
      "lastname": "TORRE",
      "firstname": "Catalina",
      "name": "Catalina TORRE",
      "id": 10236
    }
  ],
  "links": [
    {
      "statut": "temoin",
      "date": "1796-05-02",
      "source": 10274,
      "target": 10302
    },
    {
      "statut": "temoin",
      "date": "1796-05-02",
      "source": 10274,
      "target": 10305
    },
    {
      "statut": "pere",
      "date": "1792-08-20",
      "source": 10279,
      "target": 10280
    },
    {
      "statut": "mere",
      "date": "1792-08-20",
      "source": 10279,
      "target": 10281
    },
    {
      "statut": "epouse",
      "date": "1792-08-20",
      "source": 10279,
      "target": 10282
    },
    {
      "statut": "temoin",
      "date": "1792-08-20",
      "source": 10279,
      "target": 1365
    },
    {
      "statut": "temoin",
      "date": "1792-08-20",
      "source": 10279,
      "target": 10283
    },
    {
      "statut": "pere",
      "date": "1792-08-20",
      "source": 10282,
      "target": 1718
    },
    {
      "statut": "mere",
      "date": "1792-08-20",
      "source": 10282,
      "target": 1719
    },
    {
      "statut": "temoin",
      "date": "1792-08-20",
      "source": 10282,
      "target": 1365
    },
    {
      "statut": "temoin",
      "date": "1792-08-20",
      "source": 10282,
      "target": 10283
    },
    {
      "statut": "temoin",
      "date": "1802-09-26",
      "source": 10283,
      "target": 10341
    },
    {
      "statut": "temoin",
      "date": "1802-09-26",
      "source": 10283,
      "target": 10344
    },
    {
      "statut": "temoin",
      "date": "1805-02-25",
      "source": 10283,
      "target": 10372
    },
    {
      "statut": "temoin",
      "date": "1805-02-25",
      "source": 10283,
      "target": 10375
    },
    {
      "statut": "pere",
      "date": "1793-07-06",
      "source": 10284,
      "target": 10285
    },
    {
      "statut": "mere",
      "date": "1793-07-06",
      "source": 10284,
      "target": 10286
    },
    {
      "statut": "epouse",
      "date": "1793-07-06",
      "source": 10284,
      "target": 10287
    },
    {
      "statut": "temoin",
      "date": "1793-07-06",
      "source": 10284,
      "target": 1365
    },
    {
      "statut": "temoin",
      "date": "1793-07-06",
      "source": 10284,
      "target": 10290
    },
    {
      "statut": "pere",
      "date": "1793-07-06",
      "source": 10287,
      "target": 10288
    },
    {
      "statut": "mere",
      "date": "1793-07-06",
      "source": 10287,
      "target": 10289
    },
    {
      "statut": "temoin",
      "date": "1793-07-06",
      "source": 10287,
      "target": 1365
    },
    {
      "statut": "temoin",
      "date": "1793-07-06",
      "source": 10287,
      "target": 10290
    },
    {
      "statut": "mere",
      "date": "1802-09-26",
      "source": 10289,
      "target": 10344
    },
    {
      "statut": "pere",
      "date": "1795-02-10",
      "source": 10296,
      "target": 10297
    },
    {
      "statut": "mere",
      "date": "1795-02-10",
      "source": 10296,
      "target": 10298
    },
    {
      "statut": "epouse",
      "date": "1795-02-10",
      "source": 10296,
      "target": 10299
    },
    {
      "statut": "temoin",
      "date": "1795-02-10",
      "source": 10296,
      "target": 1365
    },
    {
      "statut": "temoin",
      "date": "1795-02-10",
      "source": 10296,
      "target": 10301
    },
    {
      "statut": "pere",
      "date": "1795-02-10",
      "source": 10299,
      "target": 10233
    },
    {
      "statut": "mere",
      "date": "1795-02-10",
      "source": 10299,
      "target": 10300
    },
    {
      "statut": "temoin",
      "date": "1795-02-10",
      "source": 10299,
      "target": 1365
    },
    {
      "statut": "temoin",
      "date": "1795-02-10",
      "source": 10299,
      "target": 10301
    },
    {
      "statut": "temoin",
      "date": "1801-12-09",
      "source": 10299,
      "target": 10326
    },
    {
      "statut": "temoin",
      "date": "1801-12-09",
      "source": 10299,
      "target": 10328
    },
    {
      "statut": "pere",
      "date": "1796-05-02",
      "source": 10302,
      "target": 10303
    },
    {
      "statut": "mere",
      "date": "1796-05-02",
      "source": 10302,
      "target": 10304
    },
    {
      "statut": "epouse",
      "date": "1796-05-02",
      "source": 10302,
      "target": 10305
    },
    {
      "statut": "temoin",
      "date": "1796-05-02",
      "source": 10302,
      "target": 10307
    },
    {
      "statut": "temoin",
      "date": "1808-08-12",
      "source": 10302,
      "target": 10382
    },
    {
      "statut": "temoin",
      "date": "1808-08-12",
      "source": 10302,
      "target": 10385
    },
    {
      "statut": "pere",
      "date": "1796-05-02",
      "source": 10305,
      "target": 1718
    },
    {
      "statut": "mere",
      "date": "1796-05-02",
      "source": 10305,
      "target": 10306
    },
    {
      "statut": "temoin",
      "date": "1796-05-02",
      "source": 10305,
      "target": 10307
    },
    {
      "statut": "pere",
      "date": "1799-04-19",
      "source": 10311,
      "target": 10312
    },
    {
      "statut": "mere",
      "date": "1799-04-19",
      "source": 10311,
      "target": 10313
    },
    {
      "statut": "epouse",
      "date": "1799-04-19",
      "source": 10311,
      "target": 10314
    },
    {
      "statut": "temoin",
      "date": "1799-04-19",
      "source": 10311,
      "target": 1365
    },
    {
      "statut": "temoin",
      "date": "1799-04-19",
      "source": 10311,
      "target": 10224
    },
    {
      "statut": "pere",
      "date": "1799-04-19",
      "source": 10314,
      "target": 10233
    },
    {
      "statut": "mere",
      "date": "1799-04-19",
      "source": 10314,
      "target": 10236
    },
    {
      "statut": "temoin",
      "date": "1799-04-19",
      "source": 10314,
      "target": 1365
    },
    {
      "statut": "temoin",
      "date": "1799-04-19",
      "source": 10314,
      "target": 10224
    },
    {
      "statut": "pere",
      "date": "1800-01-08",
      "source": 10322,
      "target": 10322
    },
    {
      "statut": "mere",
      "date": "1800-01-08",
      "source": 10322,
      "target": 10323
    },
    {
      "statut": "epouse",
      "date": "1800-01-08",
      "source": 10322,
      "target": 10324
    },
    {
      "statut": "temoin",
      "date": "1800-01-08",
      "source": 10322,
      "target": 10325
    },
    {
      "statut": "temoin",
      "date": "1800-01-08",
      "source": 10322,
      "target": 1719
    },
    {
      "statut": "pere",
      "date": "1800-01-08",
      "source": 10324,
      "target": 1718
    },
    {
      "statut": "temoin",
      "date": "1800-01-08",
      "source": 10324,
      "target": 1719
    },
    {
      "statut": "temoin",
      "date": "1800-01-08",
      "source": 10324,
      "target": 10325
    },
    {
      "statut": "pere",
      "date": "1801-12-09",
      "source": 10326,
      "target": 10326
    },
    {
      "statut": "mere",
      "date": "1801-12-09",
      "source": 10326,
      "target": 10327
    },
    {
      "statut": "epouse",
      "date": "1801-12-09",
      "source": 10326,
      "target": 10328
    },
    {
      "statut": "temoin",
      "date": "1801-12-09",
      "source": 10326,
      "target": 1365
    },
    {
      "statut": "pere",
      "date": "1801-12-09",
      "source": 10328,
      "target": 10233
    },
    {
      "statut": "mere",
      "date": "1801-12-09",
      "source": 10328,
      "target": 10329
    },
    {
      "statut": "temoin",
      "date": "1801-12-09",
      "source": 10328,
      "target": 1365
    },
    {
      "statut": "pere",
      "date": "1802-09-26",
      "source": 10341,
      "target": 10342
    },
    {
      "statut": "mere",
      "date": "1802-09-26",
      "source": 10341,
      "target": 10343
    },
    {
      "statut": "epouse",
      "date": "1802-09-26",
      "source": 10341,
      "target": 10344
    },
    {
      "statut": "temoin",
      "date": "1802-09-26",
      "source": 10341,
      "target": 1365
    },
    {
      "statut": "pere",
      "date": "1802-09-26",
      "source": 10344,
      "target": 10345
    },
    {
      "statut": "temoin",
      "date": "1802-09-26",
      "source": 10344,
      "target": 1365
    },
    {
      "statut": "pere",
      "date": "1803-02-22",
      "source": 10346,
      "target": 10347
    },
    {
      "statut": "mere",
      "date": "1803-02-22",
      "source": 10346,
      "target": 10348
    },
    {
      "statut": "epouse",
      "date": "1803-02-22",
      "source": 10346,
      "target": 10349
    },
    {
      "statut": "temoin",
      "date": "1803-02-22",
      "source": 10346,
      "target": 10351
    },
    {
      "statut": "temoin",
      "date": "1803-02-22",
      "source": 10346,
      "target": 10352
    },
    {
      "statut": "temoin",
      "date": "1803-02-22",
      "source": 10346,
      "target": 10353
    },
    {
      "statut": "temoin",
      "date": "1803-02-22",
      "source": 10346,
      "target": 10190
    },
    {
      "statut": "pere",
      "date": "1803-02-22",
      "source": 10349,
      "target": 1718
    },
    {
      "statut": "mere",
      "date": "1803-02-22",
      "source": 10349,
      "target": 10350
    },
    {
      "statut": "temoin",
      "date": "1803-02-22",
      "source": 10349,
      "target": 10351
    },
    {
      "statut": "temoin",
      "date": "1803-02-22",
      "source": 10349,
      "target": 10352
    },
    {
      "statut": "temoin",
      "date": "1803-02-22",
      "source": 10349,
      "target": 10353
    },
    {
      "statut": "temoin",
      "date": "1803-02-22",
      "source": 10349,
      "target": 10190
    },
    {
      "statut": "mere",
      "date": "1803-02-22",
      "source": 10349,
      "target": 10205
    },
    {
      "statut": "pere",
      "date": "1805-02-25",
      "source": 10372,
      "target": 10373
    },
    {
      "statut": "mere",
      "date": "1805-02-25",
      "source": 10372,
      "target": 10374
    },
    {
      "statut": "epouse",
      "date": "1805-02-25",
      "source": 10372,
      "target": 10375
    },
    {
      "statut": "temoin",
      "date": "1805-02-25",
      "source": 10372,
      "target": 1365
    },
    {
      "statut": "pere",
      "date": "1805-02-25",
      "source": 10375,
      "target": 10376
    },
    {
      "statut": "mere",
      "date": "1805-02-25",
      "source": 10375,
      "target": 10377
    },
    {
      "statut": "temoin",
      "date": "1805-02-25",
      "source": 10375,
      "target": 1365
    },
    {
      "statut": "pere",
      "date": "1808-08-12",
      "source": 10382,
      "target": 10383
    },
    {
      "statut": "mere",
      "date": "1808-08-12",
      "source": 10382,
      "target": 10384
    },
    {
      "statut": "epouse",
      "date": "1808-08-12",
      "source": 10382,
      "target": 10385
    },
    {
      "statut": "temoin",
      "date": "1808-08-12",
      "source": 10382,
      "target": 10386
    },
    {
      "statut": "pere",
      "date": "1808-08-12",
      "source": 10385,
      "target": 1718
    },
    {
      "statut": "mere",
      "date": "1808-08-12",
      "source": 10385,
      "target": 10205
    },
    {
      "statut": "temoin",
      "date": "1808-08-12",
      "source": 10385,
      "target": 10386
    },
    {
      "statut": "temoin",
      "date": "1808-10-24",
      "source": 10387,
      "target": 1365
    },
    {
      "statut": "mere",
      "date": "1808-10-24",
      "source": 10387,
      "target": 10224
    },
    {
      "statut": "epouse",
      "date": "1808-10-24",
      "source": 10387,
      "target": 10388
    },
    {
      "statut": "temoin",
      "date": "1808-10-24",
      "source": 10387,
      "target": 10390
    },
    {
      "statut": "pere",
      "date": "1808-10-24",
      "source": 10388,
      "target": 10389
    },
    {
      "statut": "temoin",
      "date": "1808-10-24",
      "source": 10388,
      "target": 10390
    },
    {
      "statut": "temoin",
      "date": "1808-10-24",
      "source": 10388,
      "target": 1365
    },
    {
      "statut": "pere",
      "date": "1808-10-26",
      "source": 1716,
      "target": 1718
    },
    {
      "statut": "mere",
      "date": "1808-10-26",
      "source": 1716,
      "target": 1719
    },
    {
      "statut": "epouse",
      "date": "1808-10-26",
      "source": 1716,
      "target": 1717
    },
    {
      "statut": "pere",
      "date": "1808-10-26",
      "source": 1717,
      "target": 1720
    },
    {
      "statut": "mere",
      "date": "1808-10-26",
      "source": 1717,
      "target": 1331
    }
  ],
  "edgeType": "statut"
}